\relax 
\providecommand\hyper@newdestlabel[2]{}
\providecommand\HyperFirstAtBeginDocument{\AtBeginDocument}
\HyperFirstAtBeginDocument{\ifx\hyper@anchor\@undefined
\global\let\oldcontentsline\contentsline
\gdef\contentsline#1#2#3#4{\oldcontentsline{#1}{#2}{#3}}
\global\let\oldnewlabel\newlabel
\gdef\newlabel#1#2{\newlabelxx{#1}#2}
\gdef\newlabelxx#1#2#3#4#5#6{\oldnewlabel{#1}{{#2}{#3}}}
\AtEndDocument{\ifx\hyper@anchor\@undefined
\let\contentsline\oldcontentsline
\let\newlabel\oldnewlabel
\fi}
\fi}
\global\let\hyper@last\relax 
\gdef\HyperFirstAtBeginDocument#1{#1}
\providecommand\HyField@AuxAddToFields[1]{}
\providecommand\HyField@AuxAddToCoFields[2]{}
\@writefile{toc}{\contentsline {section}{\numberline {1}Introduction}{2}{section.1}\protected@file@percent }
\newlabel{sec:Intro}{{1}{2}{Introduction}{section.1}{}}
\@writefile{toc}{\contentsline {section}{\numberline {2}Background Information}{2}{section.2}\protected@file@percent }
\newlabel{sec:background}{{2}{2}{Background Information}{section.2}{}}
\@writefile{toc}{\contentsline {subsection}{\numberline {2.1}Fundamentals of Orbital Dynamics}{2}{subsection.2.1}\protected@file@percent }
\newlabel{sec:Orbits}{{2.1}{2}{Fundamentals of Orbital Dynamics}{subsection.2.1}{}}
\@writefile{toc}{\contentsline {subsection}{\numberline {2.2}Basics of Earth Observations}{3}{subsection.2.2}\protected@file@percent }
\newlabel{sec:Basics}{{2.2}{3}{Basics of Earth Observations}{subsection.2.2}{}}
\@writefile{toc}{\contentsline {subsection}{\numberline {2.3}Types of Satellite Imaging}{4}{subsection.2.3}\protected@file@percent }
\newlabel{sec:Bands}{{2.3}{4}{Types of Satellite Imaging}{subsection.2.3}{}}
\@writefile{toc}{\contentsline {subsubsection}{\numberline {2.3.1}Multi-spectral Imaging}{5}{subsubsection.2.3.1}\protected@file@percent }
\newlabel{sec:MSI}{{2.3.1}{5}{Multi-spectral Imaging}{subsubsection.2.3.1}{}}
\@writefile{toc}{\contentsline {subsection}{\numberline {2.4}An Introduction to Google Earth Engine}{6}{subsection.2.4}\protected@file@percent }
\newlabel{sec:GEE}{{2.4}{6}{An Introduction to Google Earth Engine}{subsection.2.4}{}}
\@writefile{toc}{\contentsline {section}{\numberline {3}A Brief EO Satellite Taxonomy}{6}{section.3}\protected@file@percent }
\newlabel{sec:Taxonomy}{{3}{6}{A Brief EO Satellite Taxonomy}{section.3}{}}
\@writefile{toc}{\contentsline {subsection}{\numberline {3.1}Landsat}{6}{subsection.3.1}\protected@file@percent }
\@writefile{toc}{\contentsline {subsection}{\numberline {3.2}MODIS}{7}{subsection.3.2}\protected@file@percent }
\@writefile{toc}{\contentsline {subsection}{\numberline {3.3}Sentinel 1}{7}{subsection.3.3}\protected@file@percent }
\@writefile{toc}{\contentsline {subsection}{\numberline {3.4}Sentinel 2}{7}{subsection.3.4}\protected@file@percent }
\@writefile{toc}{\contentsline {subsection}{\numberline {3.5}Planet Labs SkySat}{7}{subsection.3.5}\protected@file@percent }
\@writefile{toc}{\contentsline {section}{\numberline {4}Installation and Setup}{8}{section.4}\protected@file@percent }
\newlabel{sec:install}{{4}{8}{Installation and Setup}{section.4}{}}
\@writefile{toc}{\contentsline {section}{\numberline {5}Structure}{9}{section.5}\protected@file@percent }
\newlabel{sec:structure}{{5}{9}{Structure}{section.5}{}}
\@writefile{toc}{\contentsline {section}{\numberline {6}Usage}{10}{section.6}\protected@file@percent }
\newlabel{sec:usage}{{6}{10}{Usage}{section.6}{}}
\@writefile{toc}{\contentsline {subsection}{\numberline {6.1}Run card inputs}{10}{subsection.6.1}\protected@file@percent }
\@writefile{toc}{\contentsline {subsection}{\numberline {6.2}Dates}{11}{subsection.6.2}\protected@file@percent }
\newlabel{sec:dates}{{6.2}{11}{Dates}{subsection.6.2}{}}
\@writefile{toc}{\contentsline {subsection}{\numberline {6.3}Masking}{12}{subsection.6.3}\protected@file@percent }
\newlabel{sec:masking}{{6.3}{12}{Masking}{subsection.6.3}{}}
\@writefile{toc}{\contentsline {subsection}{\numberline {6.4}Analytic information}{12}{subsection.6.4}\protected@file@percent }
\newlabel{sec:analyses}{{6.4}{12}{Analytic information}{subsection.6.4}{}}
\@writefile{toc}{\contentsline {subsection}{\numberline {6.5}Visualisations}{13}{subsection.6.5}\protected@file@percent }
\newlabel{sec:vis}{{6.5}{13}{Visualisations}{subsection.6.5}{}}
\@writefile{toc}{\contentsline {section}{\numberline {7}Expansions}{14}{section.7}\protected@file@percent }
\newlabel{sec:exp}{{7}{14}{Expansions}{section.7}{}}
\@writefile{toc}{\contentsline {subsection}{\numberline {7.1}Adding an index}{14}{subsection.7.1}\protected@file@percent }
\@writefile{toc}{\contentsline {subsection}{\numberline {7.2}Adding a visualisation}{14}{subsection.7.2}\protected@file@percent }
\@writefile{toc}{\contentsline {subsection}{\numberline {7.3}Adding a quantitative analysis}{14}{subsection.7.3}\protected@file@percent }
\@writefile{toc}{\contentsline {subsection}{\numberline {7.4}Adding a satellite}{15}{subsection.7.4}\protected@file@percent }
\@writefile{toc}{\contentsline {section}{\numberline {8}Developer Notes}{15}{section.8}\protected@file@percent }
\newlabel{sec:dev}{{8}{15}{Developer Notes}{section.8}{}}
\@writefile{toc}{\contentsline {section}{\numberline {9}Index of Indices}{16}{section.9}\protected@file@percent }
\newlabel{sec:indices}{{9}{16}{Index of Indices}{section.9}{}}
\@writefile{toc}{\contentsline {subsection}{\numberline {9.1}Normalised Difference Index}{16}{subsection.9.1}\protected@file@percent }
\@writefile{toc}{\contentsline {subsubsection}{\numberline {9.1.1}Vegetation}{16}{subsubsection.9.1.1}\protected@file@percent }
\@writefile{toc}{\contentsline {subsubsection}{\numberline {9.1.2}Water}{16}{subsubsection.9.1.2}\protected@file@percent }
\@writefile{toc}{\contentsline {subsubsection}{\numberline {9.1.3}Moisture}{16}{subsubsection.9.1.3}\protected@file@percent }
\@writefile{toc}{\contentsline {subsubsection}{\numberline {9.1.4}Snow}{16}{subsubsection.9.1.4}\protected@file@percent }
\@writefile{toc}{\contentsline {subsubsection}{\numberline {9.1.5}Red Edge}{17}{subsubsection.9.1.5}\protected@file@percent }
\@writefile{toc}{\contentsline {subsubsection}{\numberline {9.1.6}Normalised Burn Ratio}{17}{subsubsection.9.1.6}\protected@file@percent }
\@writefile{toc}{\contentsline {subsubsection}{\numberline {9.1.7}Green Normalised Difference Vegetation Index}{17}{subsubsection.9.1.7}\protected@file@percent }
\@writefile{toc}{\contentsline {subsection}{\numberline {9.2}Ratio Minus One}{17}{subsection.9.2}\protected@file@percent }
\@writefile{toc}{\contentsline {subsubsection}{\numberline {9.2.1}Red Edge Chlorophyll (RECI)}{17}{subsubsection.9.2.1}\protected@file@percent }
\@writefile{toc}{\contentsline {subsubsection}{\numberline {9.2.2}Green Chlorophyll (GCI)}{17}{subsubsection.9.2.2}\protected@file@percent }
\@writefile{toc}{\contentsline {subsection}{\numberline {9.3}Soil Adjusted Vegetation Indices}{17}{subsection.9.3}\protected@file@percent }
\@writefile{toc}{\contentsline {subsubsection}{\numberline {9.3.1}Soil Adjusted Vegetation (SAVI)}{17}{subsubsection.9.3.1}\protected@file@percent }
\@writefile{toc}{\contentsline {subsubsection}{\numberline {9.3.2}Optimised SAVI (OSAVI)}{18}{subsubsection.9.3.2}\protected@file@percent }
\@writefile{toc}{\contentsline {subsubsection}{\numberline {9.3.3}Modified SAVI (MSAVI)}{18}{subsubsection.9.3.3}\protected@file@percent }
\@writefile{toc}{\contentsline {subsection}{\numberline {9.4}Collected other indices}{18}{subsection.9.4}\protected@file@percent }
\@writefile{toc}{\contentsline {subsubsection}{\numberline {9.4.1}Enhanced Vegetation Index (EVI)}{18}{subsubsection.9.4.1}\protected@file@percent }
\@writefile{toc}{\contentsline {subsubsection}{\numberline {9.4.2}Structure Intensive Pigment Vegetation Index (SIPI)}{18}{subsubsection.9.4.2}\protected@file@percent }
\@writefile{toc}{\contentsline {subsubsection}{\numberline {9.4.3}Atmospherically Resistant Vegetation Index (ARVI)}{18}{subsubsection.9.4.3}\protected@file@percent }
\@writefile{toc}{\contentsline {subsubsection}{\numberline {9.4.4}Visible Atmospherically Resistant Index (VARI)}{18}{subsubsection.9.4.4}\protected@file@percent }
\@writefile{toc}{\contentsline {section}{\numberline {10}Useful Resources}{19}{section.10}\protected@file@percent }
\newlabel{sec:links}{{10}{19}{Useful Resources}{section.10}{}}
